{
  "project_info": {
    "project_number": "603675565953",
    "firebase_url": "https://test-57199-default-rtdb.firebaseio.com",
    "project_id": "test-57199",
    "storage_bucket": "test-57199.appspot.com"
  },
  "client": [
    {
      "client_info": {
        "mobilesdk_app_id": "1:603675565953:android:986650235fb1f9c779d280",
        "android_client_info": {
          "package_name": "com.DefaultCompany.test"
        }
      },
      "oauth_client": [],
      "api_key": [
        {
          "current_key": "AIzaSyDlJ7LMnAOSPALIC-Hm3bS1eQqeAthX6qA"
        }
      ],
      "services": {
        "appinvite_service": {
          "other_platform_oauth_client": []
        }
      }
    }
  ],
  "configuration_version": "1"
}